title = Eu edge EuTiO3
a = 3.979
core = eu	rmax = 7.0	space = p m 3 m
atoms
! sym	x	y	z	tag
  Eu	0	0	0
  Ti	0.5	0.5	0.5
  O	0.5	0.5	0

!!&& Local Variables:
!!&& input-program-name: "atoms"
!!&& End:
%# Input-mode Time-stamp: <2000/03/11 21:08:43 bruce>
